23

4
1
3
2
-2
2
-2
8
2
7

5
8
7
6
2
1
7
-2
3

4
4
7
4
5
3
4
-2
8

5
7
4
8
5
-1
5
8
4

2
7
5
4
3
-1
8
6
-1
4

7
2
6
5
-1
5
8
6
5

3
6
2
-2
1
-2
6
2
1
-2
3

7
2
1
-1
2
-2
1
3
2
-2
4

6
2
6
6
5
6
-2
7
2

4
3
3
3
1
1
1
4

6
8
6
4
1
6
3
2

8
1
5
5
4
2
-1
1
1

7
1
1
7
5
1
2
2

6
6
6
4
-1
3
3
1
7

8
1
7
6
1
8
5
4

1
2
8
-2
6
7
8
5
1

4
4
6
7
6
2
8
-2
2

4
5
7
-1
8
6
2
6
-1
5

8
8
1
7
1
5
-2
4
5

3
1
1
-2
8
5
-2
3
3
5

5
7
5
8
4
4
-1
8
6

2
6
2
3
6
-1
2
7
8

5
3
6
8
7
4
6
2
