-992
992
992
-24 -48 -48 16 -96 -400 312
-8 -40 -520 -80 -96 -8 192
-320 -8 -320 8 -304
992
216 -8 -8 -8 -8 40 -40 -40 -40 -40 -40 -40 -40 -40 272
-8 -8 -16 -144 -40 16 -24 -24 648
-256 312 -256 144
-16 -16 -16 -16 -16 -16 -16 -16 -16 -16 -16 -16 -16 -16 -16 -16 -16 -16 -16 232 -16 -16 -16 -16 -16 -16 -16 -16 -16 -16 -16 32
992
-72 -80 -168 648
-56 -56 -56 800
-784 -8 -8 16 -40 96
-144 -144 688
-248 -240 -488
-496 -488
-8 -8 -8 -8 -8 -8 -8 -8 -8 -8 -8 -8 -8 -8 -8 -8 112 -448 160
312 -8 24 -400 216
