20

124

124
-1

5
1
2
3
4
5
-1
-1
-1
-2
-1
-1

100
-1
50
-1
25
-1
12
-1
6
-1
3
6
9
12
50
-3
6

1
5
65
23
-4
10
-1
12
1
1

40
1
40
1
38
-4

15
1
23
-3
-2
-1

5
5
5
5
5
5
5
5
5
5
5
5
5
5
5
-5
-5
-5
1
1
1
1
1
1
-1
-1
-1
-1
-1
-1

7
8
-2
1
15
5
2
3
-2
-4
-1
1
1
2
3
-4
17

1
-1
8
8
8
45
32
-3
-2
-1
-1
45
-1
45
-1
32

23
23
1
4
-1
-1
-1
-1
65
-1
2
2
2
2
2
2
2
2
2
2
2
2
2
2
2
2
2
2
2
2
2
2
2
2
2
2
2
2
2
2
2
2
2
2
2
2
2
2
2
2
-20
-20
-20
-20
-20
-20
-20
-20
-20
-20

1
2
3
4
5
-5
-4
-3
-2
-1

9
10
21

7
7
7

98
2
-2
1
4
5
-3
1

18
18

62
61
-1
31
30

62
61

46
56
-1
1
1
1
1
1
1
1
1
1
1
1
1
1
1
1
1

19
19
1
1
1
-1
-1
50
-3
-2
