-72 168 -104 624
-72 136 -120 -160 472
-144 112 -64 -136 -80 416
-328 -32 -304 304
-88 896
-336 648
488 -384 104
992
64 -24 -88 56 -232 -192 144 -48 80
-376 -8 16 -192 368
64 -72 248 -160 -80 328
32 -192 752
992
-184 -232 -8 544
992
992
-88 128 -216 -312 216
-216 -32 -320 400
-400 584
920 -8 48
-176 72 -232 -296 184
-200 -88 -96 584
-136 -64 -112 -328 -256 56
-344 -216 416
-184 -384 408
-120 -96 -24 728
