64 -32 -96 776
64 -40 -112 752
56 -72 -136 704
80 -24 -32 832
104 -40 -104 720
72 -48 -96 752
104 -32 -72 760
104 -72 -40 752
64 -80 -64 760
80 -24 -32 832
80 -32 -120 736
64 -80 -96 728
88 -24 -48 808
128 -56 -40 744
56 -8 -96 808
120 -80 -128 640
80 -48 -48 792
80 -56 -64 768
48 -48 -104 768
96 -56 -64 752
48 -8 -72 840
56 -8 -96 808
40 -40 -72 816
40 -8 -48 872
